P-SAT 1주차 패키지 과제
…
문제 5

data$confirmed_date<-data$confirmed_date%>%
  as.Date

문제 6

confirmed_number<-data%>%
  group_by(confirmed_date)%>%
  summarise(count=n())

confirmed_number

## # A tibble: 142 x 2
##    confirmed_date count
##  * <date>         <int>
##  1 2020-01-23         1
##  2 2020-01-26         1
##  3 2020-01-27         1
##  4 2020-01-30         4
##  5 2020-01-31         3
##  6 2020-02-02         2
##  7 2020-02-05         4
##  8 2020-02-06         1
##  9 2020-02-07         1
## 10 2020-02-09         2
## # ... with 132 more rows
…
##  [1] "주중" "주중" "주중" "주중" "주중" "주중" "주중" "주말" "주중" "주중"
## [11] "주중" "주말" "주말" "주중" "주중" "주중" "주중" "주중" "주중" "주중"

문제 8

confirmed_per_age<-data%>%
  group_by(age,confirmed_date)%>%
  summarise(count=n())

## `summarise()` has grouped output by 'age'. You can override using the `.groups` argument.

confirmed_per_age

## # A tibble: 791 x 3
## # Groups:   age [11]
##    age   confirmed_date count
##    <chr> <date>         <int>
##  1 0s    2020-02-24         1
##  2 0s    2020-02-26         1
##  3 0s    2020-02-27         1
##  4 0s    2020-02-28         1
##  5 0s    2020-02-29         3
##  6 0s    2020-03-01         3
##  7 0s    2020-03-02         1
##  8 0s    2020-03-03         1
##  9 0s    2020-03-04         2
## 10 0s    2020-03-05         3
## # ... with 781 more rows
…
